
<svg width="75px" height="77px" viewBox="0 0 75 77" version="1.1" xmlns="http://www.w3.org/2000/svg" xmlns:xlink="http://www.w3.org/1999/xlink">
    <g id="03_Signing_Identities" stroke="none" stroke-width="1" fill="none" fill-rule="evenodd">
        <g id="01_07_iOS_Certificate_Upload_Bundle" transform="translate(-1093.000000, -210.000000)">
            <g id="Settings" transform="translate(750.000000, 0.000000)">
                <g id="Group" transform="translate(30.000000, 97.000000)">
                    <g id="Group-3" transform="translate(203.000000, 113.000000)">
                        <g id="Group-2" transform="translate(110.000000, -0.000000)">
                            <path d="M73.3855843,9.24635878 L64.6776056,0.755501633 C64.1789354,0.270484898 63.5119939,0 62.8169673,0 L13.3584566,0 C11.8873396,0 10.6968343,1.18766939 10.6968343,2.65510408 L10.6968343,23.0974714 L16.0201588,23.0974714 L16.0201588,5.31028776 L60.1552652,5.31028776 L60.1552652,11.1459612 C60.1552652,12.6134755 61.3458503,13.8010653 62.8168875,13.8010653 L68.8632439,13.8010653 L68.8632439,71.4955951 L16.0201588,71.4955951 L16.0201588,53.7115959 L10.6968343,53.7115959 L10.6968343,74.1539625 C10.6968343,75.6214768 11.8874194,76.8090666 13.3584566,76.8090666 L71.524946,76.8090666 C72.996063,76.8090666 74.1865684,75.6213972 74.1865684,74.1539625 L74.1865684,11.1458816 C74.1865684,10.4307967 73.8967173,9.74681633 73.3855843,9.24626327 L73.3855843,9.24635878 Z" id="Fill-1" fill="#AEBCCE"></path>
                            <path d="M52.7095205,27 L4.07042553,27 C1.82329787,27 -2.59348099e-13,28.8157286 -2.59348099e-13,31.0605367 L-2.59348099e-13,46.6836184 C-2.59348099e-13,48.9252429 1.82010638,50.7440755 4.07042553,50.7440755 L52.706329,50.7440755 C54.9534566,50.7440755 56.7767585,48.9284265 56.7767585,46.6836184 L56.7767585,31.0573531 C56.7798742,28.8157286 54.9566481,27 52.7094407,27 L52.7095205,27 Z" id="Fill-4" fill="#AEBCCE"></path>
                            <path d="M9.61615878,45.4032363 L9.61615878,30.7732363 C10.6501588,30.5972363 12.1021588,30.4652363 14.1481588,30.4652363 C16.2161588,30.4652363 17.6901588,30.8612363 18.6801588,31.6532363 C19.6261588,32.4012363 20.2641588,33.6332363 20.2641588,35.0852363 C20.2641588,36.5372363 19.7801588,37.7692363 18.9001588,38.6052363 C17.7561588,39.6832363 16.0621588,40.1672363 14.0821588,40.1672363 C13.6421588,40.1672363 13.2461588,40.1452363 12.9381588,40.1012363 L12.9381588,45.4032363 L9.61615878,45.4032363 Z M12.9381588,33.1272363 L12.9381588,37.5052363 C13.2241588,37.5712363 13.5761588,37.5932363 14.0601588,37.5932363 C15.8421588,37.5932363 16.9421588,36.6912363 16.9421588,35.1732363 C16.9421588,33.8092363 15.9961588,32.9952363 14.3241588,32.9952363 C13.6421588,32.9952363 13.1801588,33.0612363 12.9381588,33.1272363 Z M23.3981588,45.4032363 L23.3981588,30.5752363 L32.4621588,30.5752363 L32.4621588,33.3252363 L26.7641588,33.3252363 L26.7641588,36.7132363 L32.0881588,36.7132363 L32.0881588,39.4412363 L26.7641588,39.4412363 L26.7641588,45.4032363 L23.3981588,45.4032363 Z M47.6741588,45.4032363 L43.8021588,45.4032363 L42.4601588,42.7192363 C41.9101588,41.6852363 41.5581588,40.9152363 41.1401588,40.0572363 L41.0961588,40.0572363 C40.7881588,40.9152363 40.4141588,41.6852363 39.9521588,42.7192363 L38.7201588,45.4032363 L34.8921588,45.4032363 L39.1821588,37.9012363 L35.0461588,30.5752363 L38.8961588,30.5752363 L40.1941588,33.2812363 C40.6341588,34.1832363 40.9641588,34.9092363 41.3161588,35.7452363 L41.3601588,35.7452363 C41.7121588,34.7992363 41.9981588,34.1392363 42.3721588,33.2812363 L43.6261588,30.5752363 L47.4541588,30.5752363 L43.2741588,37.8132363 L47.6741588,45.4032363 Z" id="PFX" fill="#FFFFFF" fill-rule="nonzero"></path>
                        </g>
                    </g>
                </g>
            </g>
        </g>
    </g>
</svg>