
<svg width="48px" height="48px" viewBox="0 0 48 48" version="1.1" xmlns="http://www.w3.org/2000/svg" xmlns:xlink="http://www.w3.org/1999/xlink">
    <defs>
        <path d="M8,0 L40,0 C44.418278,-8.11624501e-16 48,3.581722 48,8 L48,40 C48,44.418278 44.418278,48 40,48 L8,48 C3.581722,48 5.41083001e-16,44.418278 0,40 L0,8 C-5.41083001e-16,3.581722 3.581722,8.11624501e-16 8,0 Z M10.5618229,21.3257233 L17.259483,26.2137713 L14.7055442,34.1144256 C14.516455,34.6804488 14.7117639,35.2977164 15.2093576,35.6638482 C15.4482071,35.8337834 15.726865,35.92 16.0017967,35.92 C16.2866742,35.92 16.5690485,35.8300345 16.811656,35.6463541 L23.4994436,30.7682223 L30.2069761,35.6626678 C30.6809492,36.0025377 31.3178814,36.0025377 31.8092427,35.6526717 C32.2869418,35.2990471 32.482257,34.683059 32.2968779,34.1270159 L29.7392132,26.2164455 L36.4368732,21.3258385 C36.9182984,20.9759565 37.1173397,20.3624634 36.9307504,19.7926657 C36.7478808,19.2266424 36.2278958,18.8467879 35.6332559,18.8467879 L27.3544118,18.8467879 L24.8004731,10.9496523 C24.6250683,10.3798865 24.1001025,10 23.5004945,10 C22.8996446,10 22.3759271,10.3835971 22.203,10.9358976 L19.6453353,18.846468 L11.3639434,18.846468 C10.7705455,18.846468 10.2493121,19.2263225 10.0664489,19.7923458 C9.88482449,20.3658861 10.0838652,20.9819062 10.5615681,21.3255186 L10.5618229,21.3257233 Z" id="generic-app-icon-path-1"></path>
    </defs>
    <g id="03_Testing" stroke="none" stroke-width="1" fill="none" fill-rule="evenodd">
        <g id="01_04_New_Profile" transform="translate(-347.000000, -106.000000)">
            <g id="New_Profile" transform="translate(327.000000, 86.000000)">
                <g id="App_Info" transform="translate(20.000000, 20.000000)">
                    <g id="App_Icon">
                        <mask id="star" >
                            <use xlink:href="#generic-app-icon-path-1"></use>
                        </mask>
                        <use id="rectangle" fill-rule="nonzero" xlink:href="#generic-app-icon-path-1"></use>
                    </g>
                </g>
            </g>
        </g>
    </g>
</svg>