<svg xmlns="http://www.w3.org/2000/svg" width="14" height="16" viewBox="0 0 14 16">
    <path  fill-rule="nonzero" d="M11.36 8.502c.022 2.42 2.215 3.225 2.24 3.236-.02.055-.351 1.148-1.157 2.276-.696.975-1.417 1.945-2.555 1.964-1.12.02-1.478-.635-2.758-.635-1.279 0-1.678.616-2.736.656-1.098.04-1.935-1.053-2.636-2.024C.322 11.988-.774 8.361.699 5.913a4.115 4.115 0 0 1 3.456-2.007c1.078-.018 2.097.697 2.755.697.66 0 1.898-.86 3.198-.734.544.022 2.073.21 3.054 1.585-.078.05-1.824 1.021-1.803 3.048zM9.255 2.555c-.584.675-1.54 1.202-2.477 1.132-.127-.92.346-1.875.886-2.476C8.268.535 9.285.033 10.125 0c.108.937-.287 1.877-.869 2.555z"/>
</svg>
