<svg xmlns="http://www.w3.org/2000/svg" width="6" height="10" viewBox="0 0 6 10">
    <path fill="#5B799E" fill-rule="evenodd" d="M1.046 10c-.272 0-.532-.105-.741-.305a1.068 1.068 0 0 1 0-1.494L3.465 5 .306 1.802a1.068 1.068 0 0 1 0-1.494 1.045 1.045 0 0 1 1.481 0l3.912 3.946c.198.2.302.463.302.748 0 .284-.115.547-.302.747L1.786 9.695c-.209.2-.48.305-.74.305z"/>
</svg>
