<?xml version="1.0" encoding="UTF-8"?>
<svg width="30px" height="20px" viewBox="0 0 30 20" version="1.1" xmlns="http://www.w3.org/2000/svg" xmlns:xlink="http://www.w3.org/1999/xlink">
    <!-- Generator: Sketch 55.1 (78136) - https://sketchapp.com -->
    <title>Group</title>
    <desc>Created with Sketch.</desc>
    <g id="02_Build" stroke="none" stroke-width="1" fill="none" fill-rule="evenodd">
        <g id="01_03_Build_Profiles_Menu" transform="translate(-707.000000, -211.000000)">
            <g id="Profiles" transform="translate(327.000000, 86.000000)">
                <g id="Konvert" transform="translate(359.000000, 0.000000)">
                    <g id="Group" transform="translate(21.000000, 125.000000)">
                        <rect id="Rectangle" fill="#3D9DEE" x="0" y="0" width="30" height="20" rx="4"></rect>
                        <text id="BitB" font-family="HelveticaNeue-Bold, Helvetica Neue" font-size="11" font-weight="bold" letter-spacing="0.1833333" fill="#FFFFFF">
                            <tspan x="4.0343334" y="14">BitB</tspan>
                        </text>
                    </g>
                </g>
            </g>
        </g>
    </g>
</svg>