<?xml version="1.0" encoding="UTF-8"?>
<svg width="18px" height="18px" viewBox="0 0 18 18" version="1.1" xmlns="http://www.w3.org/2000/svg" xmlns:xlink="http://www.w3.org/1999/xlink">
    <!-- Generator: Sketch 53.2 (72643) - https://sketchapp.com -->
    <title>copy</title>
    <desc>Created with Sketch.</desc>
    <g id="03_Testing" stroke="none" stroke-width="1" >
        <g id="03_01_Profile_Detail" transform="translate(-1351.000000, -671.000000)" >
            <g id="Version_Detail" transform="translate(519.000000, 0.000000)">
                <g id="Message_To_Testers" transform="translate(16.000000, 650.000000)">
                    <g id="copy" transform="translate(816.000000, 21.000000)">
                        <path d="M17.53794,1.19904087e-13 L17.53794,13.1664857 L4.37145429,13.1664857 L4.37145429,1.19904087e-13 L17.53794,1.19904087e-13 Z M15.9950829,11.6226 L15.9950829,1.542834 L5.91431143,1.542834 L5.91431143,11.6236054 L15.9950829,11.6226 Z M2.36651143,5.91428571 L1.54285714,5.91428571 L1.54285714,15.9950571 L11.6236286,15.9950571 L11.6236286,15.12018 L13.1664857,15.12018 L13.1664857,17.5379143 L7.10542736e-15,17.5379143 L7.10542736e-15,4.37142857 L2.36651143,4.37142857 L2.36651143,5.91428571 Z" id="Combined-Shape"></path>
                    </g>
                </g>
            </g>
        </g>
    </g>
</svg>