<svg xmlns="http://www.w3.org/2000/svg" width="20" height="17" viewBox="0 0 20 17">
    <path fill-rule="nonzero" d="M15 8l-5 5-5-5 1.4-1.4L9 9.2V0h2v9.2l2.6-2.6L15 8zm3 1h2v8H0V9h2v6h16V9z"/>
</svg>
