<svg width="16px" height="20px" viewBox="0 0 16 20" version="1.1" xmlns="http://www.w3.org/2000/svg" xmlns:xlink="http://www.w3.org/1999/xlink">
    <g id="02_Build" stroke="none" stroke-width="1" fill="none" fill-rule="evenodd">
        <g id="01_05_03_Build_Profile_Detail_Menu" transform="translate(-1183.000000, -533.000000)" fill="#FFFFFF" fill-rule="nonzero">
            <g id="Group-20" transform="translate(1171.000000, 421.000000)">
                <g id="noun_Document_792843_000000" transform="translate(12.000000, 112.000000)">
                    <path d="M6.6,0 L16,0 L16,20 L0,20 L0,6.6 L6.6,0 Z M6,3.4 L3.4,6 L6,6 L6,3.4 Z M14,18 L14,2 L8,2 L8,8 L2,8 L2,18 L14,18 Z M4,14 L12,14 L12,16 L4,16 L4,14 Z M4,10 L12,10 L12,12 L4,12 L4,10 Z" id="Combined-Shape"></path>
                </g>
            </g>
        </g>
    </g>
</svg>