<svg xmlns="http://www.w3.org/2000/svg" width="16" height="4" viewBox="0 0 16 4">
    <path fill="" fill-rule="evenodd" d="M10.057 2c0 1.105-.921 2-2.057 2s-2.057-.895-2.057-2S6.863 0 8 0c1.136 0 2.057.895 2.057 2zM16 2c0 1.105-.92 2-2.057 2-1.136 0-2.057-.895-2.057-2s.921-2 2.057-2S16 .895 16 2zM4.114 2c0 1.105-.921 2-2.057 2S0 3.105 0 2s.92-2 2.057-2c1.136 0 2.057.895 2.057 2z"/>
</svg>
