<svg width="12px" height="12px" viewBox="0 0 12 12" version="1.1" xmlns="http://www.w3.org/2000/svg" xmlns:xlink="http://www.w3.org/1999/xlink">
    <g id="03_Testing" stroke="none" stroke-width="1" fill-rule="evenodd">
        <g id="03_01_Profile_Detail" transform="translate(-792.000000, -177.000000)" >
            <g id="Version_Detail" transform="translate(519.000000, 0.000000)">
                <g id="Apk" transform="translate(16.000000, 85.000000)">
                    <g id="Tags" transform="translate(19.000000, 84.000000)">
                        <g id="Add" transform="translate(230.000000, 0.000000)">
                            <polygon id="Fill-1" points="13.0769231 8 13.0769231 13.0769231 8 13.0769231 8 14.9230769 13.0769231 14.9230769 13.0769231 20 14.9230769 20 14.9230769 14.9230769 20 14.9230769 20 13.0769231 14.9230769 13.0769231 14.9230769 8"></polygon>
                        </g>
                    </g>
                </g>
            </g>
        </g>
    </g>
</svg>