
<svg width="19px" height="19px" viewBox="0 0 19 19" version="1.1" xmlns="http://www.w3.org/2000/svg" xmlns:xlink="http://www.w3.org/1999/xlink">
    <g id="03_Testing" stroke="none" stroke-width="1" fill="none" fill-rule="evenodd">
        <g id="01_06_Profile_Settings_Auth" transform="translate(-360.000000, -389.000000)">
            <g id="Popup" transform="translate(325.000000, 137.000000)">
                <g id="Content" transform="translate(1.000000, 82.000000)">
                    <g id="List" transform="translate(19.000000, 65.000000)">
                        <g id="Radio_Buttons" transform="translate(15.000000, 14.000000)">
                            <g id="Group-6" transform="translate(0.000000, 91.000000)">
                                <circle id="Oval"  cx="9.5" cy="9.5" r="9"></circle>
                                <circle id="Oval"  cx="9.5" cy="9.5" r="4.5"></circle>
                            </g>
                        </g>
                    </g>
                </g>
            </g>
        </g>
    </g>
</svg>