<svg xmlns="http://www.w3.org/2000/svg" width="269" height="270" viewBox="0 0 269 270">
  <path fill="#FF8E34" fill-rule="evenodd" d="M267.578208,191.540239 C288.104692,208.295373 291.56023,226.097071 277.944822,244.945332 C261.161451,267.639782 230.097097,275.883142 203.801998,263.115935 L203.581763,263.009003 C203.518183,262.978132 203.454658,262.947149 203.391188,262.916053 C173.832022,248.433849 161.609729,212.731265 176.091933,183.172099 L208.870534,116.268736 L227.28958,78.6742075 L249.42618,33.4918961 C260.18326,11.5359608 282.619463,-0.89089589 305.586905,0.0498191468 C327.773354,-0.0342843967 349.127017,12.2897903 359.538965,33.5412876 L432.873213,183.22149 C447.355416,212.780656 435.133123,248.48324 405.573957,262.965444 C405.510488,262.99654 405.446963,263.027524 405.383383,263.058394 L405.163147,263.165326 C375.785663,277.429141 340.455258,265.467843 325.737532,236.428631 C318.109208,220.38552 323.196697,205.242643 341,191 L340.994112,191 C354.383581,180.184259 362.94671,163.631703 362.94671,145.079121 C362.94671,112.494321 336.531511,86.0791208 303.94671,86.0791208 C271.36191,86.0791208 244.94671,112.494321 244.94671,145.079121 C244.94671,163.943387 253.799978,180.739861 267.578208,191.540239 Z M304,176 C286.879173,176 273,162.120827 273,145 C273,127.879173 286.879173,114 304,114 C321.120827,114 335,127.879173 335,145 C335,162.120827 321.120827,176 304,176 Z" transform="translate(-170)"/>
</svg>
